!SESSION 2019-04-21 18:31:16.571 -----------------------------------------------
eclipse.buildId=unknown
java.version=1.8.0_191
java.vendor=Oracle Corporation
BootLoader constants: OS=linux, ARCH=x86_64, WS=gtk, NL=es_ES
Command-line arguments:  -dev file:/home/r2d3/MRS_Restsevice_cliente-TLS/.metadata/.plugins/org.eclipse.pde.core/Client_configuration/dev.properties -os linux -ws gtk -arch x86_64 -consoleLog -console

!ENTRY AFI.Automovil 4 0 2019-04-21 18:31:21.256
!MESSAGE FrameworkEvent ERROR
!STACK 0
org.osgi.framework.BundleException: Exception in afi.automovil.Activator.start() of bundle AFI.Automovil.
	at org.eclipse.osgi.internal.framework.BundleContextImpl.startActivator(BundleContextImpl.java:803)
	at org.eclipse.osgi.internal.framework.BundleContextImpl.start(BundleContextImpl.java:732)
	at org.eclipse.osgi.internal.framework.EquinoxBundle.startWorker0(EquinoxBundle.java:1005)
	at org.eclipse.osgi.internal.framework.EquinoxBundle$EquinoxModule.startWorker(EquinoxBundle.java:357)
	at org.eclipse.osgi.container.Module.doStart(Module.java:588)
	at org.eclipse.osgi.container.Module.start(Module.java:456)
	at org.eclipse.osgi.container.ModuleContainer$ContainerStartLevel.incStartLevel(ModuleContainer.java:1783)
	at org.eclipse.osgi.container.ModuleContainer$ContainerStartLevel.incStartLevel(ModuleContainer.java:1763)
	at org.eclipse.osgi.container.ModuleContainer$ContainerStartLevel.doContainerStartLevel(ModuleContainer.java:1725)
	at org.eclipse.osgi.container.ModuleContainer$ContainerStartLevel.dispatchEvent(ModuleContainer.java:1656)
	at org.eclipse.osgi.container.ModuleContainer$ContainerStartLevel.dispatchEvent(ModuleContainer.java:1)
	at org.eclipse.osgi.framework.eventmgr.EventManager.dispatchEvent(EventManager.java:233)
	at org.eclipse.osgi.framework.eventmgr.EventManager$EventThread.run(EventManager.java:343)
Caused by: org.restlet.resource.ResourceException: Communication Error (1001) - The connector failed to complete the communication with the server
	at org.restlet.resource.ClientResource.doError(ClientResource.java:592)
	at org.restlet.resource.ClientResource.handleInbound(ClientResource.java:1156)
	at org.restlet.resource.ClientResource.handle(ClientResource.java:1049)
	at org.restlet.resource.ClientResource.handle(ClientResource.java:1024)
	at org.restlet.resource.ClientResource.put(ClientResource.java:1567)
	at afi.restlet.client.RestletClient.sendToServer(RestletClient.java:67)
	at afi.automovil.Activator.start(Activator.java:48)
	at org.eclipse.osgi.internal.framework.BundleContextImpl$3.run(BundleContextImpl.java:782)
	at org.eclipse.osgi.internal.framework.BundleContextImpl$3.run(BundleContextImpl.java:1)
	at java.security.AccessController.doPrivileged(Native Method)
	at org.eclipse.osgi.internal.framework.BundleContextImpl.startActivator(BundleContextImpl.java:775)
	... 12 more
Caused by: javax.net.ssl.SSLHandshakeException: java.security.cert.CertificateException: No name matching localhost found
	at sun.security.ssl.Alerts.getSSLException(Alerts.java:192)
	at sun.security.ssl.SSLSocketImpl.fatal(SSLSocketImpl.java:1946)
	at sun.security.ssl.Handshaker.fatalSE(Handshaker.java:316)
	at sun.security.ssl.Handshaker.fatalSE(Handshaker.java:310)
	at sun.security.ssl.ClientHandshaker.serverCertificate(ClientHandshaker.java:1639)
	at sun.security.ssl.ClientHandshaker.processMessage(ClientHandshaker.java:223)
	at sun.security.ssl.Handshaker.processLoop(Handshaker.java:1037)
	at sun.security.ssl.Handshaker.process_record(Handshaker.java:965)
	at sun.security.ssl.SSLSocketImpl.readRecord(SSLSocketImpl.java:1064)
	at sun.security.ssl.SSLSocketImpl.performInitialHandshake(SSLSocketImpl.java:1367)
	at sun.security.ssl.SSLSocketImpl.startHandshake(SSLSocketImpl.java:1395)
	at sun.security.ssl.SSLSocketImpl.startHandshake(SSLSocketImpl.java:1379)
	at sun.net.www.protocol.https.HttpsClient.afterConnect(HttpsClient.java:559)
	at sun.net.www.protocol.https.AbstractDelegateHttpsURLConnection.connect(AbstractDelegateHttpsURLConnection.java:185)
	at sun.net.www.protocol.https.HttpsURLConnectionImpl.connect(HttpsURLConnectionImpl.java:162)
	at org.restlet.engine.connector.HttpUrlConnectionCall.sendRequest(HttpUrlConnectionCall.java:360)
	at org.restlet.engine.adapter.ClientAdapter.commit(ClientAdapter.java:105)
	at org.restlet.engine.adapter.HttpClientHelper.handle(HttpClientHelper.java:119)
	at org.restlet.Client.handle(Client.java:153)
	at org.restlet.resource.ClientResource.handle(ClientResource.java:1093)
	at org.restlet.resource.ClientResource.retry(ClientResource.java:1655)
	at org.restlet.resource.ClientResource.handle(ClientResource.java:1101)
	at org.restlet.resource.ClientResource.retry(ClientResource.java:1655)
	at org.restlet.resource.ClientResource.handle(ClientResource.java:1101)
	at org.restlet.resource.ClientResource.handleOutbound(ClientResource.java:1179)
	at org.restlet.resource.ClientResource.handle(ClientResource.java:1048)
	... 20 more
Caused by: java.security.cert.CertificateException: No name matching localhost found
	at sun.security.util.HostnameChecker.matchDNS(HostnameChecker.java:231)
	at sun.security.util.HostnameChecker.match(HostnameChecker.java:96)
	at sun.security.ssl.X509TrustManagerImpl.checkIdentity(X509TrustManagerImpl.java:455)
	at sun.security.ssl.X509TrustManagerImpl.checkIdentity(X509TrustManagerImpl.java:436)
	at sun.security.ssl.X509TrustManagerImpl.checkTrusted(X509TrustManagerImpl.java:200)
	at sun.security.ssl.X509TrustManagerImpl.checkServerTrusted(X509TrustManagerImpl.java:124)
	at sun.security.ssl.ClientHandshaker.serverCertificate(ClientHandshaker.java:1621)
	... 41 more
Root exception:
org.restlet.resource.ResourceException: Communication Error (1001) - The connector failed to complete the communication with the server
	at org.restlet.resource.ClientResource.doError(ClientResource.java:592)
	at org.restlet.resource.ClientResource.handleInbound(ClientResource.java:1156)
	at org.restlet.resource.ClientResource.handle(ClientResource.java:1049)
	at org.restlet.resource.ClientResource.handle(ClientResource.java:1024)
	at org.restlet.resource.ClientResource.put(ClientResource.java:1567)
	at afi.restlet.client.RestletClient.sendToServer(RestletClient.java:67)
	at afi.automovil.Activator.start(Activator.java:48)
	at org.eclipse.osgi.internal.framework.BundleContextImpl$3.run(BundleContextImpl.java:782)
	at org.eclipse.osgi.internal.framework.BundleContextImpl$3.run(BundleContextImpl.java:1)
	at java.security.AccessController.doPrivileged(Native Method)
	at org.eclipse.osgi.internal.framework.BundleContextImpl.startActivator(BundleContextImpl.java:775)
	at org.eclipse.osgi.internal.framework.BundleContextImpl.start(BundleContextImpl.java:732)
	at org.eclipse.osgi.internal.framework.EquinoxBundle.startWorker0(EquinoxBundle.java:1005)
	at org.eclipse.osgi.internal.framework.EquinoxBundle$EquinoxModule.startWorker(EquinoxBundle.java:357)
	at org.eclipse.osgi.container.Module.doStart(Module.java:588)
	at org.eclipse.osgi.container.Module.start(Module.java:456)
	at org.eclipse.osgi.container.ModuleContainer$ContainerStartLevel.incStartLevel(ModuleContainer.java:1783)
	at org.eclipse.osgi.container.ModuleContainer$ContainerStartLevel.incStartLevel(ModuleContainer.java:1763)
	at org.eclipse.osgi.container.ModuleContainer$ContainerStartLevel.doContainerStartLevel(ModuleContainer.java:1725)
	at org.eclipse.osgi.container.ModuleContainer$ContainerStartLevel.dispatchEvent(ModuleContainer.java:1656)
	at org.eclipse.osgi.container.ModuleContainer$ContainerStartLevel.dispatchEvent(ModuleContainer.java:1)
	at org.eclipse.osgi.framework.eventmgr.EventManager.dispatchEvent(EventManager.java:233)
	at org.eclipse.osgi.framework.eventmgr.EventManager$EventThread.run(EventManager.java:343)
Caused by: javax.net.ssl.SSLHandshakeException: java.security.cert.CertificateException: No name matching localhost found
	at sun.security.ssl.Alerts.getSSLException(Alerts.java:192)
	at sun.security.ssl.SSLSocketImpl.fatal(SSLSocketImpl.java:1946)
	at sun.security.ssl.Handshaker.fatalSE(Handshaker.java:316)
	at sun.security.ssl.Handshaker.fatalSE(Handshaker.java:310)
	at sun.security.ssl.ClientHandshaker.serverCertificate(ClientHandshaker.java:1639)
	at sun.security.ssl.ClientHandshaker.processMessage(ClientHandshaker.java:223)
	at sun.security.ssl.Handshaker.processLoop(Handshaker.java:1037)
	at sun.security.ssl.Handshaker.process_record(Handshaker.java:965)
	at sun.security.ssl.SSLSocketImpl.readRecord(SSLSocketImpl.java:1064)
	at sun.security.ssl.SSLSocketImpl.performInitialHandshake(SSLSocketImpl.java:1367)
	at sun.security.ssl.SSLSocketImpl.startHandshake(SSLSocketImpl.java:1395)
	at sun.security.ssl.SSLSocketImpl.startHandshake(SSLSocketImpl.java:1379)
	at sun.net.www.protocol.https.HttpsClient.afterConnect(HttpsClient.java:559)
	at sun.net.www.protocol.https.AbstractDelegateHttpsURLConnection.connect(AbstractDelegateHttpsURLConnection.java:185)
	at sun.net.www.protocol.https.HttpsURLConnectionImpl.connect(HttpsURLConnectionImpl.java:162)
	at org.restlet.engine.connector.HttpUrlConnectionCall.sendRequest(HttpUrlConnectionCall.java:360)
	at org.restlet.engine.adapter.ClientAdapter.commit(ClientAdapter.java:105)
	at org.restlet.engine.adapter.HttpClientHelper.handle(HttpClientHelper.java:119)
	at org.restlet.Client.handle(Client.java:153)
	at org.restlet.resource.ClientResource.handle(ClientResource.java:1093)
	at org.restlet.resource.ClientResource.retry(ClientResource.java:1655)
	at org.restlet.resource.ClientResource.handle(ClientResource.java:1101)
	at org.restlet.resource.ClientResource.retry(ClientResource.java:1655)
	at org.restlet.resource.ClientResource.handle(ClientResource.java:1101)
	at org.restlet.resource.ClientResource.handleOutbound(ClientResource.java:1179)
	at org.restlet.resource.ClientResource.handle(ClientResource.java:1048)
	... 20 more
Caused by: java.security.cert.CertificateException: No name matching localhost found
	at sun.security.util.HostnameChecker.matchDNS(HostnameChecker.java:231)
	at sun.security.util.HostnameChecker.match(HostnameChecker.java:96)
	at sun.security.ssl.X509TrustManagerImpl.checkIdentity(X509TrustManagerImpl.java:455)
	at sun.security.ssl.X509TrustManagerImpl.checkIdentity(X509TrustManagerImpl.java:436)
	at sun.security.ssl.X509TrustManagerImpl.checkTrusted(X509TrustManagerImpl.java:200)
	at sun.security.ssl.X509TrustManagerImpl.checkServerTrusted(X509TrustManagerImpl.java:124)
	at sun.security.ssl.ClientHandshaker.serverCertificate(ClientHandshaker.java:1621)
	... 41 more

!ENTRY org.eclipse.osgi 4 0 2019-04-21 18:31:21.259
!MESSAGE Bundle AFI.Automovil_1.0.0 [12] is not active.
