!SESSION 2019-05-12 18:12:39.010 -----------------------------------------------
eclipse.buildId=unknown
java.version=1.8.0_181
java.vendor=Oracle Corporation
BootLoader constants: OS=linux, ARCH=x86_64, WS=gtk, NL=es_ES
Command-line arguments:  -dev file:/home/mongodb/Escritorio/MRS_Restsevice_cliente-TLS/.metadata/.plugins/org.eclipse.pde.core/Client_configuration/dev.properties -os linux -ws gtk -arch x86_64 -consoleLog -console

!ENTRY AFI.Automovil 4 0 2019-05-12 18:12:51.635
!MESSAGE FrameworkEvent ERROR
!STACK 0
org.osgi.framework.BundleException: Exception in afi.automovil.Activator.start() of bundle AFI.Automovil.
	at org.eclipse.osgi.internal.framework.BundleContextImpl.startActivator(BundleContextImpl.java:803)
	at org.eclipse.osgi.internal.framework.BundleContextImpl.start(BundleContextImpl.java:732)
	at org.eclipse.osgi.internal.framework.EquinoxBundle.startWorker0(EquinoxBundle.java:1005)
	at org.eclipse.osgi.internal.framework.EquinoxBundle$EquinoxModule.startWorker(EquinoxBundle.java:357)
	at org.eclipse.osgi.container.Module.doStart(Module.java:588)
	at org.eclipse.osgi.container.Module.start(Module.java:456)
	at org.eclipse.osgi.container.ModuleContainer$ContainerStartLevel.incStartLevel(ModuleContainer.java:1783)
	at org.eclipse.osgi.container.ModuleContainer$ContainerStartLevel.incStartLevel(ModuleContainer.java:1763)
	at org.eclipse.osgi.container.ModuleContainer$ContainerStartLevel.doContainerStartLevel(ModuleContainer.java:1725)
	at org.eclipse.osgi.container.ModuleContainer$ContainerStartLevel.dispatchEvent(ModuleContainer.java:1656)
	at org.eclipse.osgi.container.ModuleContainer$ContainerStartLevel.dispatchEvent(ModuleContainer.java:1)
	at org.eclipse.osgi.framework.eventmgr.EventManager.dispatchEvent(EventManager.java:233)
	at org.eclipse.osgi.framework.eventmgr.EventManager$EventThread.run(EventManager.java:343)
Caused by: org.restlet.resource.ResourceException: Connection Error (1000) - The connector failed to connect to the server
	at org.restlet.resource.ClientResource.doError(ClientResource.java:592)
	at org.restlet.resource.ClientResource.handleInbound(ClientResource.java:1156)
	at org.restlet.resource.ClientResource.handle(ClientResource.java:1049)
	at org.restlet.resource.ClientResource.handle(ClientResource.java:1024)
	at org.restlet.resource.ClientResource.handle(ClientResource.java:929)
	at org.restlet.resource.ClientResource.delete(ClientResource.java:548)
	at afi.restlet.client.RestletClient.sendGetOrDel(RestletClient.java:58)
	at afi.automovil.Activator.start(Activator.java:112)
	at org.eclipse.osgi.internal.framework.BundleContextImpl$3.run(BundleContextImpl.java:782)
	at org.eclipse.osgi.internal.framework.BundleContextImpl$3.run(BundleContextImpl.java:1)
	at java.security.AccessController.doPrivileged(Native Method)
	at org.eclipse.osgi.internal.framework.BundleContextImpl.startActivator(BundleContextImpl.java:775)
	... 12 more
Caused by: java.net.ConnectException: Connection refused (Connection refused)
	at java.net.PlainSocketImpl.socketConnect(Native Method)
	at java.net.AbstractPlainSocketImpl.doConnect(AbstractPlainSocketImpl.java:350)
	at java.net.AbstractPlainSocketImpl.connectToAddress(AbstractPlainSocketImpl.java:206)
	at java.net.AbstractPlainSocketImpl.connect(AbstractPlainSocketImpl.java:188)
	at java.net.SocksSocketImpl.connect(SocksSocketImpl.java:392)
	at java.net.Socket.connect(Socket.java:589)
	at sun.security.ssl.SSLSocketImpl.connect(SSLSocketImpl.java:673)
	at sun.net.NetworkClient.doConnect(NetworkClient.java:175)
	at sun.net.www.http.HttpClient.openServer(HttpClient.java:463)
	at sun.net.www.http.HttpClient.openServer(HttpClient.java:558)
	at sun.net.www.protocol.https.HttpsClient.<init>(HttpsClient.java:264)
	at sun.net.www.protocol.https.HttpsClient.New(HttpsClient.java:367)
	at sun.net.www.protocol.https.AbstractDelegateHttpsURLConnection.getNewHttpClient(AbstractDelegateHttpsURLConnection.java:191)
	at sun.net.www.protocol.http.HttpURLConnection.plainConnect0(HttpURLConnection.java:1156)
	at sun.net.www.protocol.http.HttpURLConnection.plainConnect(HttpURLConnection.java:1050)
	at sun.net.www.protocol.https.AbstractDelegateHttpsURLConnection.connect(AbstractDelegateHttpsURLConnection.java:177)
	at sun.net.www.protocol.https.HttpsURLConnectionImpl.connect(HttpsURLConnectionImpl.java:162)
	at org.restlet.engine.connector.HttpUrlConnectionCall.sendRequest(HttpUrlConnectionCall.java:360)
	at org.restlet.engine.adapter.ClientAdapter.commit(ClientAdapter.java:105)
	at org.restlet.engine.adapter.HttpClientHelper.handle(HttpClientHelper.java:119)
	at org.restlet.Client.handle(Client.java:153)
	at org.restlet.resource.ClientResource.handle(ClientResource.java:1093)
	at org.restlet.resource.ClientResource.retry(ClientResource.java:1655)
	at org.restlet.resource.ClientResource.handle(ClientResource.java:1101)
	at org.restlet.resource.ClientResource.retry(ClientResource.java:1655)
	at org.restlet.resource.ClientResource.handle(ClientResource.java:1101)
	at org.restlet.resource.ClientResource.handleOutbound(ClientResource.java:1179)
	at org.restlet.resource.ClientResource.handle(ClientResource.java:1048)
	... 21 more
Root exception:
org.restlet.resource.ResourceException: Connection Error (1000) - The connector failed to connect to the server
	at org.restlet.resource.ClientResource.doError(ClientResource.java:592)
	at org.restlet.resource.ClientResource.handleInbound(ClientResource.java:1156)
	at org.restlet.resource.ClientResource.handle(ClientResource.java:1049)
	at org.restlet.resource.ClientResource.handle(ClientResource.java:1024)
	at org.restlet.resource.ClientResource.handle(ClientResource.java:929)
	at org.restlet.resource.ClientResource.delete(ClientResource.java:548)
	at afi.restlet.client.RestletClient.sendGetOrDel(RestletClient.java:58)
	at afi.automovil.Activator.start(Activator.java:112)
	at org.eclipse.osgi.internal.framework.BundleContextImpl$3.run(BundleContextImpl.java:782)
	at org.eclipse.osgi.internal.framework.BundleContextImpl$3.run(BundleContextImpl.java:1)
	at java.security.AccessController.doPrivileged(Native Method)
	at org.eclipse.osgi.internal.framework.BundleContextImpl.startActivator(BundleContextImpl.java:775)
	at org.eclipse.osgi.internal.framework.BundleContextImpl.start(BundleContextImpl.java:732)
	at org.eclipse.osgi.internal.framework.EquinoxBundle.startWorker0(EquinoxBundle.java:1005)
	at org.eclipse.osgi.internal.framework.EquinoxBundle$EquinoxModule.startWorker(EquinoxBundle.java:357)
	at org.eclipse.osgi.container.Module.doStart(Module.java:588)
	at org.eclipse.osgi.container.Module.start(Module.java:456)
	at org.eclipse.osgi.container.ModuleContainer$ContainerStartLevel.incStartLevel(ModuleContainer.java:1783)
	at org.eclipse.osgi.container.ModuleContainer$ContainerStartLevel.incStartLevel(ModuleContainer.java:1763)
	at org.eclipse.osgi.container.ModuleContainer$ContainerStartLevel.doContainerStartLevel(ModuleContainer.java:1725)
	at org.eclipse.osgi.container.ModuleContainer$ContainerStartLevel.dispatchEvent(ModuleContainer.java:1656)
	at org.eclipse.osgi.container.ModuleContainer$ContainerStartLevel.dispatchEvent(ModuleContainer.java:1)
	at org.eclipse.osgi.framework.eventmgr.EventManager.dispatchEvent(EventManager.java:233)
	at org.eclipse.osgi.framework.eventmgr.EventManager$EventThread.run(EventManager.java:343)
Caused by: java.net.ConnectException: Connection refused (Connection refused)
	at java.net.PlainSocketImpl.socketConnect(Native Method)
	at java.net.AbstractPlainSocketImpl.doConnect(AbstractPlainSocketImpl.java:350)
	at java.net.AbstractPlainSocketImpl.connectToAddress(AbstractPlainSocketImpl.java:206)
	at java.net.AbstractPlainSocketImpl.connect(AbstractPlainSocketImpl.java:188)
	at java.net.SocksSocketImpl.connect(SocksSocketImpl.java:392)
	at java.net.Socket.connect(Socket.java:589)
	at sun.security.ssl.SSLSocketImpl.connect(SSLSocketImpl.java:673)
	at sun.net.NetworkClient.doConnect(NetworkClient.java:175)
	at sun.net.www.http.HttpClient.openServer(HttpClient.java:463)
	at sun.net.www.http.HttpClient.openServer(HttpClient.java:558)
	at sun.net.www.protocol.https.HttpsClient.<init>(HttpsClient.java:264)
	at sun.net.www.protocol.https.HttpsClient.New(HttpsClient.java:367)
	at sun.net.www.protocol.https.AbstractDelegateHttpsURLConnection.getNewHttpClient(AbstractDelegateHttpsURLConnection.java:191)
	at sun.net.www.protocol.http.HttpURLConnection.plainConnect0(HttpURLConnection.java:1156)
	at sun.net.www.protocol.http.HttpURLConnection.plainConnect(HttpURLConnection.java:1050)
	at sun.net.www.protocol.https.AbstractDelegateHttpsURLConnection.connect(AbstractDelegateHttpsURLConnection.java:177)
	at sun.net.www.protocol.https.HttpsURLConnectionImpl.connect(HttpsURLConnectionImpl.java:162)
	at org.restlet.engine.connector.HttpUrlConnectionCall.sendRequest(HttpUrlConnectionCall.java:360)
	at org.restlet.engine.adapter.ClientAdapter.commit(ClientAdapter.java:105)
	at org.restlet.engine.adapter.HttpClientHelper.handle(HttpClientHelper.java:119)
	at org.restlet.Client.handle(Client.java:153)
	at org.restlet.resource.ClientResource.handle(ClientResource.java:1093)
	at org.restlet.resource.ClientResource.retry(ClientResource.java:1655)
	at org.restlet.resource.ClientResource.handle(ClientResource.java:1101)
	at org.restlet.resource.ClientResource.retry(ClientResource.java:1655)
	at org.restlet.resource.ClientResource.handle(ClientResource.java:1101)
	at org.restlet.resource.ClientResource.handleOutbound(ClientResource.java:1179)
	at org.restlet.resource.ClientResource.handle(ClientResource.java:1048)
	... 21 more

!ENTRY org.eclipse.osgi 4 0 2019-05-12 18:12:51.637
!MESSAGE Bundle AFI.Automovil_1.0.0 [13] is not active.
